{
  "timestamp": "2022-03-31T08:26:02+00:00",
  "data": [
    {
      "delivery_method": "czech_post",
      "prices": {
        "cs": {
          "locale_code": "cs",
          "tax_rate": 0,
          "price_wo_tax": 0,
          "price_w_tax": 0
        },
        "de": {
          "locale_code": "de",
          "tax_rate": 0,
          "price_wo_tax": 0,
          "price_w_tax": 0
        },
        "en-US": {
          "locale_code": "en-US",
          "tax_rate": 0,
          "price_wo_tax": 0,
          "price_w_tax": 0
        }
      }
    }
  ],
  "msg": "Request Processed",
  "http_status_code": 200
}
