[
  {
    "title":
    {
      "en-US": "New",
      "cs": "Přijatá",
      "de": "Neu"
    },
    "description":
    {
      "en-US": "New Order Created",
      "cs": "Nová objednávka",
      "de": "Neue Bestellung erstellt"
    },
    "color": "rgba(41, 43, 44, 1)",
    "on_change_notify_type": "mail",
    "notification": "ch-eshop::emails.global"
  },
  {
    "title":
    {
      "en-US": "In-progress",
      "cs": "Vyřizuje se",
      "de": "Im Gange"
    },
    "description":
    {
      "en-US": "Order Processing",
      "cs": "Zpracovávání objednávky",
      "de": "Auftragsabwicklung"
    },
    "color": "rgba(91, 192, 222, 1)",
    "on_change_notify_type": "mail",
    "notification": "ch-eshop::emails.global"
  },
  {
    "title":
    {
      "en-US": "Sent",
      "cs": "Odeslano",
      "de": "Gesendet"
    },
    "description":
    {
      "en-US": "Order dispatched",
      "cs": "Objednávka odeslána",
      "de": "Bestellung abgesendet"
    },
    "color": "rgba(2, 117, 216, 1)",
    "on_change_notify_type": "mail",
    "notification": "ch-eshop::emails.global"
  },
  {
    "title":
    {
      "en-US": "Delivered",
      "cs": "Doručená",
      "de": "Geliefert"
    },
    "description":
    {
      "en-US": "Order Delivered",
      "cs": "Objednávka byla doručena",
      "de": "Bestellung geliefert"
    },
    "color": "rgba(92, 184, 92, 1)",
    "on_change_notify_type": "mail",
    "notification": "ch-eshop::emails.global"
  },
  {
    "title":
    {
      "en-US": "Canceled",
      "cs": "Stornovaná",
      "de": "Abgesagt"
    },
    "description":
    {
      "en-US": "Order Canceled",
      "cs": "Zrušená objednávka",
      "de": "Bestellung storniert"
    },
    "color": "rgba(217, 83, 79, 1)",
    "on_change_notify_type": "mail",
    "notification": "ch-eshop::emails.global"
  },
  {
    "title":
    {
      "en-US": "Complaint",
      "cs": "Reklamace",
      "de": "Beschwerde"
    },
    "description":
    {
      "en-US": "Order Complaint",
      "cs": "Objednávka vrácena",
      "de": "Reklamation bestellen"
    },
    "color": "rgba(240, 173, 78, 1)",
    "on_change_notify_type": "mail",
    "notification": "ch-eshop::emails.global"
  },
  {
    "title":
    {
      "en-US": "Paid",
      "cs": "Zaplacená",
      "de": "Bezahlt"
    },
    "description":
    {
      "en-US": "Order Paid",
      "cs": "Objednávka byla zaplacená",
      "de": "Bestellung bezahlt"
    },
    "color": "rgba(105, 92, 241, 1)",
    "on_change_notify_type": "mail",
    "notification": "ch-eshop::emails.global"
  },
  {
    "title":
    {
      "en-US": "Failed",
      "cs": "Neúspěšná",
      "de": "Gescheitert"
    },
    "description":
    {
      "en-US": "Failed",
      "cs": "Neúspěšná",
      "de": "Gescheitert"
    },
    "color": "rgba(217, 83, 79, 1)",
    "on_change_notify_type": "mail",
    "notification": "ch-eshop::emails.global"
  }
]